<?xml version="1.0" encoding="UTF-8" standalone="no"?>
<!-- Created with Inkscape (http://www.inkscape.org/) -->

<svg
   xmlns:dc="http://purl.org/dc/elements/1.1/"
   xmlns:cc="http://creativecommons.org/ns#"
   xmlns:rdf="http://www.w3.org/1999/02/22-rdf-syntax-ns#"
   xmlns:svg="http://www.w3.org/2000/svg"
   xmlns="http://www.w3.org/2000/svg"
   xmlns:sodipodi="http://sodipodi.sourceforge.net/DTD/sodipodi-0.dtd"
   xmlns:inkscape="http://www.inkscape.org/namespaces/inkscape"
   width="95.604584mm"
   height="67.489426mm"
   viewBox="0 0 95.604584 67.489426"
   version="1.1"
   id="svg8"
   inkscape:version="0.92.2 (5c3e80d, 2017-08-06)"
   sodipodi:docname="lg03.svg"
   inkscape:export-filename="/home/tglman/my/sites/persy.rs/logo.png"
   inkscape:export-xdpi="40.209999"
   inkscape:export-ydpi="40.209999">
  <defs
     id="defs2" />
  <sodipodi:namedview
     id="base"
     pagecolor="#ffffff"
     bordercolor="#666666"
     borderopacity="1.0"
     inkscape:pageopacity="0.0"
     inkscape:pageshadow="2"
     inkscape:zoom="2.8"
     inkscape:cx="340.43255"
     inkscape:cy="154.56908"
     inkscape:document-units="mm"
     inkscape:current-layer="layer1"
     showgrid="false"
     fit-margin-top="0"
     fit-margin-left="0"
     fit-margin-right="0"
     fit-margin-bottom="0"
     inkscape:window-width="1920"
     inkscape:window-height="989"
     inkscape:window-x="0"
     inkscape:window-y="27"
     inkscape:window-maximized="1" />
  <metadata
     id="metadata5">
    <rdf:RDF>
      <cc:Work
         rdf:about="">
        <dc:format>image/svg+xml</dc:format>
        <dc:type
           rdf:resource="http://purl.org/dc/dcmitype/StillImage" />
        <dc:title />
      </cc:Work>
    </rdf:RDF>
  </metadata>
  <g
     inkscape:label="Layer 1"
     inkscape:groupmode="layer"
     id="layer1"
     transform="translate(-15.877036,-12.472596)">
    <rect
       style="opacity:0.92099998;fill:#b4b4b4;fill-opacity:1;fill-rule:nonzero;stroke:#000000;stroke-width:0.26458332;stroke-opacity:1"
       id="rect5830"
       width="41.38839"
       height="28.91518"
       x="42.144344"
       y="15.124265" />
    <path
       style="fill:#000000;fill-opacity:1;fill-rule:evenodd;stroke:none;stroke-width:0.22654353px;stroke-linecap:butt;stroke-linejoin:miter;stroke-opacity:1"
       d="m 111.19736,62.550953 c 0.15346,23.49069 -95.27653,22.87478 -95.320298,0.18916 l -2.6e-5,-30.72409 c 0.04377,22.68563 95.473754,23.30154 95.320304,-0.18916 z"
       id="path5184-5-6-2"
       inkscape:connector-curvature="0"
       sodipodi:nodetypes="ccccc" />
    <path
       id="rect5775-2-9-0"
       style="opacity:0.92099998;fill:#000000;fill-opacity:1;fill-rule:nonzero;stroke:#000000;stroke-width:0.26458332;stroke-opacity:1"
       d="m 64.324991,31.202653 h 16.70367 v 10.80516 h -16.70367 z m -20.24352,0 h 16.70366 v 10.80516 h -16.70366 z m 20.24352,-13.95228 h 16.70367 v 10.80516 h -16.70367 z m -20.24352,0 h 16.70366 v 10.80516 h -16.70366 z m 67.267669,12.57643 C 111.30534,7.1411713 15.875384,6.5252613 16.028841,30.015963 m 0,0 c 0.04377,22.68563 95.473749,23.30154 95.320299,-0.18916"
       inkscape:connector-curvature="0" />
  </g>
</svg>
