<?xml version="1.0" encoding="UTF-8" standalone="no"?>
<!-- Created with Inkscape (http://www.inkscape.org/) -->

<svg
   xmlns:dc="http://purl.org/dc/elements/1.1/"
   xmlns:cc="http://creativecommons.org/ns#"
   xmlns:rdf="http://www.w3.org/1999/02/22-rdf-syntax-ns#"
   xmlns:svg="http://www.w3.org/2000/svg"
   xmlns="http://www.w3.org/2000/svg"
   xmlns:sodipodi="http://sodipodi.sourceforge.net/DTD/sodipodi-0.dtd"
   xmlns:inkscape="http://www.inkscape.org/namespaces/inkscape"
   width="151.6935mm"
   height="119.23588mm"
   viewBox="0 0 151.6935 119.23588"
   version="1.1"
   id="svg8"
   inkscape:version="0.92.4 (5da689c313, 2019-01-14)"
   sodipodi:docname="lg08.svg"
   inkscape:export-filename="/home/tglman/bitmap.png"
   inkscape:export-xdpi="40.209999"
   inkscape:export-ydpi="40.209999">
  <defs
     id="defs2" />
  <sodipodi:namedview
     id="base"
     pagecolor="#ffffff"
     bordercolor="#666666"
     borderopacity="1.0"
     inkscape:pageopacity="0.0"
     inkscape:pageshadow="2"
     inkscape:zoom="1"
     inkscape:cx="570.31491"
     inkscape:cy="190.34405"
     inkscape:document-units="mm"
     inkscape:current-layer="layer1"
     showgrid="false"
     inkscape:window-width="2048"
     inkscape:window-height="1092"
     inkscape:window-x="0"
     inkscape:window-y="0"
     inkscape:window-maximized="1"
     fit-margin-top="0"
     fit-margin-left="0"
     fit-margin-right="0"
     fit-margin-bottom="0" />
  <metadata
     id="metadata5">
    <rdf:RDF>
      <cc:Work
         rdf:about="">
        <dc:format>image/svg+xml</dc:format>
        <dc:type
           rdf:resource="http://purl.org/dc/dcmitype/StillImage" />
        <dc:title></dc:title>
      </cc:Work>
    </rdf:RDF>
  </metadata>
  <g
     inkscape:label="Layer 1"
     inkscape:groupmode="layer"
     id="layer1"
     transform="translate(-15.373999,-129.13981)">
    <g
       id="g1095"
       transform="matrix(0,1,-1.0851741,0,296.05577,103.49012)"
       inkscape:export-filename="/home/tglman/my/sites/persy.rs/logo.png"
       inkscape:export-xdpi="40.209999"
       inkscape:export-ydpi="40.209999">
      <path
         sodipodi:nodetypes="ccccccccccccccc"
         inkscape:connector-curvature="0"
         d="m 138.75182,225.9381 c 0.0104,-6.81065 -10.72063,-6.81065 -10.69292,0 -0.0277,7.21226 10.7033,7.21226 10.69292,0 z m -95.744952,1.37067 c 0.01041,-6.81065 -10.191451,-6.81065 -10.163746,0 -0.02771,7.21226 10.174127,7.21226 10.163746,0 z m 89.769122,13.93153 c 0.15346,23.4907 -95.27652,22.87479 -95.320288,0.18916 L 27.830518,231.1881 c -2.89883,-3.24071 -2.939533,-6.9408 0.06855,-10.24137 l 9.556608,-10.24136 c 0.04377,22.68563 95.473754,23.30154 95.320294,-0.18916 l 9.61234,9.91063 c 3.33336,3.82953 3.32598,6.71062 0,10.24137 z"
         style="fill:#000000;fill-opacity:1;fill-rule:evenodd;stroke:none;stroke-width:0.22654353px;stroke-linecap:butt;stroke-linejoin:miter;stroke-opacity:1"
         id="path5184-5" />
      <path
         sodipodi:nodetypes="ccccccccccccccc"
         d="m 137.29661,156.08774 c 0.0104,-6.81065 -10.45604,-6.81065 -10.42833,0 -0.0277,7.21226 10.43871,7.21226 10.42833,0 z m -94.686617,1.50296 c 0.01041,-6.81065 -10.456035,-6.94294 -10.42833,-0.13229 -0.02771,7.21226 10.438711,7.34455 10.42833,0.13229 z m 90.165997,13.93153 c 0.15346,23.4907 -95.27652,22.87479 -95.320288,0.18916 l -9.625184,-10.24136 c -2.89883,-3.24071 -2.939533,-6.9408 0.06855,-10.24137 l 9.556608,-10.24136 c 0.04377,22.68563 95.473754,23.30154 95.320294,-0.18916 l 9.61234,9.91063 c 3.33336,3.82953 3.32598,6.71062 0,10.24137 z"
         style="fill:#000000;fill-opacity:1;fill-rule:evenodd;stroke:none;stroke-width:0.22654353px;stroke-linecap:butt;stroke-linejoin:miter;stroke-opacity:1"
         id="path5184-5-6"
         inkscape:connector-curvature="0" />
      <path
         sodipodi:nodetypes="ccccc"
         inkscape:connector-curvature="0"
         id="path5184-5-6-2"
         d="m 132.776,206.38126 c 0.15346,23.4907 -95.276534,22.87479 -95.320302,0.18916 l -2.6e-5,-30.72409 c 0.04377,22.68563 95.473758,23.30154 95.320308,-0.18916 z"
         style="fill:#000000;fill-opacity:1;fill-rule:evenodd;stroke:none;stroke-width:0.22654353px;stroke-linecap:butt;stroke-linejoin:miter;stroke-opacity:1" />
      <path
         inkscape:connector-curvature="0"
         d="m 132.92778,136.08604 c -0.0438,-22.68563 -95.47376,-23.30154 -95.320303,0.18916 m 0,0 c 0.04377,22.68563 95.473753,23.30154 95.320303,-0.18916"
         style="opacity:0.86000001;fill:#000000;fill-opacity:1;fill-rule:evenodd;stroke:none;stroke-width:0.22654353px;stroke-linecap:butt;stroke-linejoin:miter;stroke-opacity:1"
         id="path5249-1" />
      <g
         style="opacity:0.86000001"
         transform="matrix(1.6848067,0,0,1.5121897,-45.896887,120.81191)"
         id="g5381">
        <g
           id="g5255"
           transform="matrix(-0.0050121,-1.1141364,0.89753365,-0.0050121,41.721856,141.98886)">
          <g
             id="g4969-2-3"
             transform="matrix(0,0.9,-0.9,0,94.633401,-11.083532)">
            <path
               style="opacity:1;fill:#faff00;fill-opacity:1;stroke:none;stroke-width:0.27384374;stroke-miterlimit:4;stroke-dasharray:none;stroke-opacity:1"
               d="m 47.423044,-18.276498 c 0,0 0.40929,-3.782994 0.40929,-3.782994 0,0 -2.167272,-0.01507 -2.167272,-0.01507 0,0 -0.482135,3.779505 -0.482135,3.779505 0,0 2.240117,0.01856 2.240117,0.01856"
               id="rect4923-2-6"
               inkscape:connector-curvature="0" />
            <path
               style="opacity:1;fill:#fae211;fill-opacity:1;stroke:none;stroke-width:0.25773954;stroke-miterlimit:4;stroke-dasharray:none;stroke-opacity:1"
               d="m 47.382088,-18.506567 c 0,0 0.386472,-3.553367 0.386472,-3.553367 0,0 -2.03982,-0.01418 -2.03982,-0.01418 0,0 -0.450874,3.550286 -0.450874,3.550286 0,0 2.104222,0.01726 2.104222,0.01726"
               id="rect4923-0-8-1"
               inkscape:connector-curvature="0" />
            <path
               style="opacity:1;fill:#ffd603;fill-opacity:1;stroke:none;stroke-width:0.24294479;stroke-miterlimit:4;stroke-dasharray:none;stroke-opacity:1"
               d="m 47.374391,-18.790792 c 0,0 0.356683,-3.269406 0.356683,-3.269406 0,0 -1.964898,-0.01366 -1.964898,-0.01366 0,0 -0.413764,3.266682 -0.413764,3.266682 0,0 2.021979,0.01639 2.021979,0.01639"
               id="rect4923-0-2-97-2"
               inkscape:connector-curvature="0" />
          </g>
          <g
             id="g4969-2-3-9"
             transform="matrix(0,0.9,-0.9,0,98.380403,-11.083532)">
            <path
               style="opacity:1;fill:#faff00;fill-opacity:1;stroke:none;stroke-width:0.27384374;stroke-miterlimit:4;stroke-dasharray:none;stroke-opacity:1"
               d="m 52.977122,-14.067145 c 0,0 0.2282,-3.791649 0.2282,-3.791649 0,0 -2.175467,-0.01513 -2.175467,-0.01513 0,0 -0.301607,3.788145 -0.301607,3.788145 0,0 2.248874,0.01863 2.248874,0.01863"
               id="rect4923-2-6-3"
               inkscape:connector-curvature="0" />
            <path
               style="opacity:1;fill:#fae211;fill-opacity:1;stroke:none;stroke-width:0.25773954;stroke-miterlimit:4;stroke-dasharray:none;stroke-opacity:1"
               d="m 52.924922,-14.297755 c 0,0 0.216384,-3.561482 0.216384,-3.561482 0,0 -2.047533,-0.01424 -2.047533,-0.01424 0,0 -0.281282,3.558388 -0.281282,3.558388 0,0 2.112431,0.01733 2.112431,0.01733"
               id="rect4923-0-8-1-1"
               inkscape:connector-curvature="0" />
            <path
               style="opacity:1;fill:#ffd603;fill-opacity:1;stroke:none;stroke-width:0.24294479;stroke-miterlimit:4;stroke-dasharray:none;stroke-opacity:1"
               d="m 52.903486,-14.582645 c 0,0 0.200193,-3.276857 0.200193,-3.276857 0,0 -1.972329,-0.01372 -1.972329,-0.01372 0,0 -0.257712,3.274121 -0.257712,3.274121 0,0 2.029848,0.01645 2.029848,0.01645"
               id="rect4923-0-2-97-2-9"
               inkscape:connector-curvature="0" />
          </g>
          <g
             id="g4969-2-3-9-4"
             transform="matrix(0,0.9,-0.9,0,102.12741,-11.083532)">
            <path
               style="opacity:1;fill:#faff00;fill-opacity:1;stroke:none;stroke-width:0.27384374;stroke-miterlimit:4;stroke-dasharray:none;stroke-opacity:1"
               d="m 58.552949,-9.8576056 c 0,0 0.04571,-3.8003424 0.04571,-3.8003424 0,0 -2.183709,-0.01519 -2.183709,-0.01519 0,0 -0.119684,3.7968226 -0.119684,3.7968226 0,0 2.257682,0.018706 2.257682,0.018706"
               id="rect4923-2-6-3-7"
               inkscape:connector-curvature="0" />
            <path
               style="opacity:1;fill:#fae211;fill-opacity:1;stroke:none;stroke-width:0.25773954;stroke-miterlimit:4;stroke-dasharray:none;stroke-opacity:1"
               d="m 58.489419,-10.08876 c 0,0 0.04498,-3.569634 0.04498,-3.569634 0,0 -2.05529,-0.01429 -2.05529,-0.01429 0,0 -0.110382,3.566527 -0.110382,3.566527 0,0 2.12069,0.0174 2.12069,0.0174"
               id="rect4923-0-8-1-1-8"
               inkscape:connector-curvature="0" />
            <path
               style="opacity:1;fill:#ffd603;fill-opacity:1;stroke:none;stroke-width:0.24294479;stroke-miterlimit:4;stroke-dasharray:none;stroke-opacity:1"
               d="m 58.454136,-10.374318 c 0,0 0.0425,-3.284342 0.0425,-3.284342 0,0 -1.9798,-0.01377 -1.9798,-0.01377 0,0 -0.100458,3.281593 -0.100458,3.281593 0,0 2.037763,0.01652 2.037763,0.01652"
               id="rect4923-0-2-97-2-9-4"
               inkscape:connector-curvature="0" />
          </g>
          <g
             id="g4969-2-3-9-4-5"
             transform="matrix(0,0.9,-0.9,0,105.87441,-11.083532)">
            <path
               style="opacity:1;fill:#faff00;fill-opacity:1;stroke:none;stroke-width:0.27384374;stroke-miterlimit:4;stroke-dasharray:none;stroke-opacity:1"
               d="m 64.150636,-5.6478933 c 0,0 -0.13819,-3.8090753 -0.13819,-3.8090753 0,0 -2.191996,-0.015243 -2.191996,-0.015243 0,0 0.06364,3.8055388 0.06364,3.8055388 0,0 2.266543,0.018779 2.266543,0.018779"
               id="rect4923-2-6-3-7-0"
               inkscape:connector-curvature="0" />
            <path
               style="opacity:1;fill:#fae211;fill-opacity:1;stroke:none;stroke-width:0.25773954;stroke-miterlimit:4;stroke-dasharray:none;stroke-opacity:1"
               d="m 64.075686,-5.8795934 c 0,0 -0.127742,-3.577822 -0.127742,-3.577822 0,0 -2.063091,-0.014346 -2.063091,-0.014346 0,0 0.06184,3.5747009 0.06184,3.5747009 0,0 2.128995,0.017467 2.128995,0.017467"
               id="rect4923-0-8-1-1-8-3"
               inkscape:connector-curvature="0" />
            <path
               style="opacity:1;fill:#ffd603;fill-opacity:1;stroke:none;stroke-width:0.24294479;stroke-miterlimit:4;stroke-dasharray:none;stroke-opacity:1"
               d="m 64.026449,-6.1658234 c 0,0 -0.116419,-3.2918591 -0.116419,-3.2918591 0,0 -1.987314,-0.013819 -1.987314,-0.013819 0,0 0.05801,3.2890986 0.05801,3.2890986 0,0 2.045725,0.01658 2.045725,0.01658"
               id="rect4923-0-2-97-2-9-4-6"
               inkscape:connector-curvature="0" />
          </g>
          <g
             id="g4969-2-3-9-4-5-1"
             transform="matrix(0,0.9,-0.9,0,109.62141,-11.083532)">
            <path
               style="opacity:1;fill:#faff00;fill-opacity:1;stroke:none;stroke-width:0.27384374;stroke-miterlimit:4;stroke-dasharray:none;stroke-opacity:1"
               d="m 69.770323,-1.4379987 c 0,0 -0.323514,-3.817847 -0.323514,-3.817847 0,0 -2.200333,-0.015301 -2.200333,-0.015301 0,0 0.248391,3.8142946 0.248391,3.8142946 0,0 2.275456,0.018853 2.275456,0.018853"
               id="rect4923-2-6-3-7-0-0"
               inkscape:connector-curvature="0" />
            <path
               style="opacity:1;fill:#fae211;fill-opacity:1;stroke:none;stroke-width:0.25773954;stroke-miterlimit:4;stroke-dasharray:none;stroke-opacity:1"
               d="m 69.683863,-1.6702473 c 0,0 -0.301802,-3.5860469 -0.301802,-3.5860469 0,0 -2.070936,-0.014401 -2.070936,-0.014401 0,0 0.235388,3.5829117 0.235388,3.5829117 0,0 2.13735,0.017536 2.13735,0.017536"
               id="rect4923-0-8-1-1-8-3-6"
               inkscape:connector-curvature="0" />
            <path
               style="opacity:1;fill:#ffd603;fill-opacity:1;stroke:none;stroke-width:0.24294479;stroke-miterlimit:4;stroke-dasharray:none;stroke-opacity:1"
               d="m 69.620562,-1.9571518 c 0,0 -0.276559,-3.2994105 -0.276559,-3.2994105 0,0 -1.994872,-0.013872 -1.994872,-0.013872 0,0 0.217698,3.2966376 0.217698,3.2966376 0,0 2.053733,0.016645 2.053733,0.016645"
               id="rect4923-0-2-97-2-9-4-6-3"
               inkscape:connector-curvature="0" />
          </g>
        </g>
        <g
           id="g5300"
           transform="matrix(-0.0050121,-1.1141364,0.89753365,-0.0050121,41.246912,141.99151)">
          <g
             transform="translate(0,-1.0583333)"
             id="g5277">
            <g
               transform="matrix(0,-0.9,-0.9,0,94.715761,108.99449)"
               id="g4969-2-3-2">
              <path
                 style="opacity:1;fill:#faff00;fill-opacity:1;stroke:none;stroke-width:0.27384374;stroke-miterlimit:4;stroke-dasharray:none;stroke-opacity:1"
                 d="m 82.417033,-33.997233 c 0,0 0.321738,3.003008 0.321738,3.003008 0,0 1.993508,-0.0075 1.993508,-0.0075 0,0 -0.379634,-3.000745 -0.379634,-3.000745 0,0 -1.935612,0.0053 -1.935612,0.0053"
                 id="rect4923-2-6-0"
                 inkscape:connector-curvature="0" />
              <path
                 style="opacity:1;fill:#fae211;fill-opacity:1;stroke:none;stroke-width:0.25773954;stroke-miterlimit:4;stroke-dasharray:none;stroke-opacity:1"
                 d="m 82.492484,-33.825649 c 0,0 0.304945,2.831201 0.304945,2.831201 0,0 1.876274,-0.0071 1.876274,-0.0071 0,0 -0.356319,-2.82919 -0.356319,-2.82919 0,0 -1.8249,0.0051 -1.8249,0.0051"
                 id="rect4923-0-8-1-6"
                 inkscape:connector-curvature="0" />
              <path
                 style="opacity:1;fill:#ffd603;fill-opacity:1;stroke:none;stroke-width:0.24294479;stroke-miterlimit:4;stroke-dasharray:none;stroke-opacity:1"
                 d="m 82.549161,-33.611539 c 0,0 0.282747,2.616963 0.282747,2.616963 0,0 1.807359,-0.0068 1.807359,-0.0068 0,0 -0.328489,-2.615169 -0.328489,-2.615169 0,0 -1.761617,0.005 -1.761617,0.005"
                 id="rect4923-0-2-97-2-1"
                 inkscape:connector-curvature="0" />
            </g>
            <g
               transform="matrix(0,-0.9,-0.9,0,98.46277,108.99449)"
               id="g4969-2-3-9-5">
              <path
                 style="opacity:1;fill:#faff00;fill-opacity:1;stroke:none;stroke-width:0.27384374;stroke-miterlimit:4;stroke-dasharray:none;stroke-opacity:1"
                 d="m 77.619725,-29.820831 c 0,0 0.177893,3.008617 0.177893,3.008617 0,0 2.000437,-0.0076 2.000437,-0.0076 0,0 -0.236188,-3.006345 -0.236188,-3.006345 0,0 -1.942142,0.0053 -1.942142,0.0053"
                 id="rect4923-2-6-3-5"
                 inkscape:connector-curvature="0" />
              <path
                 style="opacity:1;fill:#fae211;fill-opacity:1;stroke:none;stroke-width:0.25773954;stroke-miterlimit:4;stroke-dasharray:none;stroke-opacity:1"
                 d="m 77.687142,-29.648934 c 0,0 0.169337,2.836496 0.169337,2.836496 0,0 1.882796,-0.0071 1.882796,-0.0071 0,0 -0.221066,-2.834478 -0.221066,-2.834478 0,0 -1.831067,0.0051 -1.831067,0.0051"
                 id="rect4923-0-8-1-1-4"
                 inkscape:connector-curvature="0" />
              <path
                 style="opacity:1;fill:#ffd603;fill-opacity:1;stroke:none;stroke-width:0.24294479;stroke-miterlimit:4;stroke-dasharray:none;stroke-opacity:1"
                 d="m 77.733672,-29.434434 c 0,0 0.157406,2.621869 0.157406,2.621869 0,0 1.813642,-0.0069 1.813642,-0.0069 0,0 -0.203464,-2.620067 -0.203464,-2.620067 0,0 -1.767584,0.0051 -1.767584,0.0051"
                 id="rect4923-0-2-97-2-9-7"
                 inkscape:connector-curvature="0" />
            </g>
            <g
               transform="matrix(0,-0.9,-0.9,0,102.20977,108.99449)"
               id="g4969-2-3-9-4-6">
              <path
                 style="opacity:1;fill:#faff00;fill-opacity:1;stroke:none;stroke-width:0.27384374;stroke-miterlimit:4;stroke-dasharray:none;stroke-opacity:1"
                 d="m 72.806222,-25.644394 c 0,0 0.03306,3.014247 0.03306,3.014247 0,0 2.007402,-0.0076 2.007402,-0.0076 0,0 -0.09175,-3.011967 -0.09175,-3.011967 0,0 -1.948706,0.0053 -1.948706,0.0053"
                 id="rect4923-2-6-3-7-5"
                 inkscape:connector-curvature="0" />
              <path
                 style="opacity:1;fill:#fae211;fill-opacity:1;stroke:none;stroke-width:0.25773954;stroke-miterlimit:4;stroke-dasharray:none;stroke-opacity:1"
                 d="m 72.86555,-25.472185 c 0,0 0.0328,2.841813 0.0328,2.841813 0,0 1.889351,-0.0071 1.889351,-0.0071 0,0 -0.08488,-2.839787 -0.08488,-2.839787 0,0 -1.837267,0.0051 -1.837267,0.0051"
                 id="rect4923-0-8-1-1-8-6"
                 inkscape:connector-curvature="0" />
              <path
                 style="opacity:1;fill:#ffd603;fill-opacity:1;stroke:none;stroke-width:0.24294479;stroke-miterlimit:4;stroke-dasharray:none;stroke-opacity:1"
                 d="m 72.901864,-25.257292 c 0,0 0.0312,2.626792 0.0312,2.626792 0,0 1.819956,-0.0069 1.819956,-0.0069 0,0 -0.07758,-2.624985 -0.07758,-2.624985 0,0 -1.773581,0.0051 -1.773581,0.0051"
                 id="rect4923-0-2-97-2-9-4-9"
                 inkscape:connector-curvature="0" />
            </g>
            <g
               transform="matrix(0,-0.9,-0.9,0,105.95677,108.99449)"
               id="g4969-2-3-9-4-5-3">
              <path
                 style="opacity:1;fill:#faff00;fill-opacity:1;stroke:none;stroke-width:0.27384374;stroke-miterlimit:4;stroke-dasharray:none;stroke-opacity:1"
                 d="m 67.97643,-21.467914 c 0,0 -0.112771,3.019898 -0.112771,3.019898 0,0 2.014404,-0.0076 2.014404,-0.0076 0,0 0.05367,-3.01761 0.05367,-3.01761 0,0 -1.955304,0.0053 -1.955304,0.0053"
                 id="rect4923-2-6-3-7-0-7"
                 inkscape:connector-curvature="0" />
              <path
                 style="opacity:1;fill:#fae211;fill-opacity:1;stroke:none;stroke-width:0.25773954;stroke-miterlimit:4;stroke-dasharray:none;stroke-opacity:1"
                 d="m 68.027614,-21.29539 c 0,0 -0.104682,2.847149 -0.104682,2.847149 0,0 1.895941,-0.0072 1.895941,-0.0072 0,0 0.05224,-2.845116 0.05224,-2.845116 0,0 -1.843498,0.0051 -1.843498,0.0051"
                 id="rect4923-0-8-1-1-8-3-4"
                 inkscape:connector-curvature="0" />
              <path
                 style="opacity:1;fill:#ffd603;fill-opacity:1;stroke:none;stroke-width:0.24294479;stroke-miterlimit:4;stroke-dasharray:none;stroke-opacity:1"
                 d="m 68.053643,-21.080103 c 0,0 -0.09587,2.631733 -0.09587,2.631733 0,0 1.826304,-0.0069 1.826304,-0.0069 0,0 0.04918,-2.629919 0.04918,-2.629919 0,0 -1.779609,0.0051 -1.779609,0.0051"
                 id="rect4923-0-2-97-2-9-4-6-5"
                 inkscape:connector-curvature="0" />
            </g>
            <g
               transform="matrix(0,-0.9,-0.9,0,109.70378,108.99449)"
               id="g4969-2-3-9-4-5-1-2">
              <path
                 style="opacity:1;fill:#faff00;fill-opacity:1;stroke:none;stroke-width:0.27384374;stroke-miterlimit:4;stroke-dasharray:none;stroke-opacity:1"
                 d="m 63.130255,-17.291377 c 0,0 -0.259607,3.02557 -0.259607,3.02557 0,0 2.021442,-0.0076 2.021442,-0.0076 0,0 0.2001,-3.023274 0.2001,-3.023274 0,0 -1.961935,0.0053 -1.961935,0.0053"
                 id="rect4923-2-6-3-7-0-0-5"
                 inkscape:connector-curvature="0" />
              <path
                 style="opacity:1;fill:#fae211;fill-opacity:1;stroke:none;stroke-width:0.25773954;stroke-miterlimit:4;stroke-dasharray:none;stroke-opacity:1"
                 d="m 63.173239,-17.118538 c 0,0 -0.243111,2.852505 -0.243111,2.852505 0,0 1.902566,-0.0072 1.902566,-0.0072 0,0 0.190305,-2.850464 0.190305,-2.850464 0,0 -1.84976,0.0051 -1.84976,0.0051"
                 id="rect4923-0-8-1-1-8-3-6-4"
                 inkscape:connector-curvature="0" />
              <path
                 style="opacity:1;fill:#ffd603;fill-opacity:1;stroke:none;stroke-width:0.24294479;stroke-miterlimit:4;stroke-dasharray:none;stroke-opacity:1"
                 d="m 63.188912,-16.902856 c 0,0 -0.223823,2.636694 -0.223823,2.636694 0,0 1.832686,-0.0069 1.832686,-0.0069 0,0 0.176805,-2.634873 0.176805,-2.634873 0,0 -1.785668,0.0051 -1.785668,0.0051"
                 id="rect4923-0-2-97-2-9-4-6-3-7"
                 inkscape:connector-curvature="0" />
            </g>
          </g>
        </g>
        <g
           id="g5310"
           transform="matrix(-0.0050121,-1.1141364,0.89753365,-0.0050121,41.732465,144.34712)">
          <g
             id="g4969-3-4"
             transform="matrix(-0.9,0,0,0.9,150.95576,27.069346)">
            <path
               style="opacity:1;fill:#faff00;fill-opacity:1;stroke:none;stroke-width:0.27384374;stroke-miterlimit:4;stroke-dasharray:none;stroke-opacity:1"
               d="m 36.941945,36.236172 c 0,0 -0.03601,-5.58029 -0.03601,-5.58029 0,0 -1.392336,-0.164781 -1.392336,-0.164781 0,0 0.03288,5.509654 0.03288,5.509654 0,0 1.395464,0.235417 1.395464,0.235417"
               id="rect4923-7-4"
               inkscape:connector-curvature="0" />
            <path
               style="opacity:1;fill:#fae211;fill-opacity:1;stroke:none;stroke-width:0.25773954;stroke-miterlimit:4;stroke-dasharray:none;stroke-opacity:1"
               d="m 36.898288,35.900523 c 0,0 -0.0338,-5.249543 -0.0338,-5.249543 0,0 -1.31045,-0.15509 -1.31045,-0.15509 0,0 0.03103,5.186986 0.03103,5.186986 0,0 1.31322,0.217647 1.31322,0.217647"
               id="rect4923-0-5-3"
               inkscape:connector-curvature="0" />
            <path
               style="opacity:1;fill:#ffd603;fill-opacity:1;stroke:none;stroke-width:0.24294479;stroke-miterlimit:4;stroke-dasharray:none;stroke-opacity:1"
               d="m 36.871264,35.488346 c 0,0 -0.03112,-4.840253 -0.03112,-4.840253 0,0 -1.262314,-0.149393 -1.262314,-0.149393 0,0 0.02866,4.784687 0.02866,4.784687 0,0 1.264776,0.204959 1.264776,0.204959"
               id="rect4923-0-2-9-0"
               inkscape:connector-curvature="0" />
          </g>
          <g
             id="g4969-2-7"
             transform="matrix(-0.9,0,0,0.9,150.91374,33.361958)">
            <path
               style="opacity:1;fill:#faff00;fill-opacity:1;stroke:none;stroke-width:0.27384374;stroke-miterlimit:4;stroke-dasharray:none;stroke-opacity:1"
               d="m 31.321869,28.246595 c 0,0 -0.02392,-5.298026 -0.02392,-5.298026 0,0 -1.256732,-0.148048 -1.256732,-0.148048 0,0 0.02134,5.234316 0.02134,5.234316 0,0 1.259312,0.211758 1.259312,0.211758"
               id="rect4923-2-8"
               inkscape:connector-curvature="0" />
            <path
               style="opacity:1;fill:#fae211;fill-opacity:1;stroke:none;stroke-width:0.25773954;stroke-miterlimit:4;stroke-dasharray:none;stroke-opacity:1"
               d="m 31.283,27.9283 c 0,0 -0.02244,-4.984133 -0.02244,-4.984133 0,0 -1.182822,-0.139341 -1.182822,-0.139341 0,0 0.02015,4.927708 0.02015,4.927708 0,0 1.185107,0.195766 1.185107,0.195766"
               id="rect4923-0-8-6"
               inkscape:connector-curvature="0" />
            <path
               style="opacity:1;fill:#ffd603;fill-opacity:1;stroke:none;stroke-width:0.24294479;stroke-miterlimit:4;stroke-dasharray:none;stroke-opacity:1"
               d="m 31.259252,27.537195 c 0,0 -0.02065,-4.59562 -0.02065,-4.59562 0,0 -1.139375,-0.134223 -1.139375,-0.134223 0,0 0.01862,4.545501 0.01862,4.545501 0,0 1.141405,0.184342 1.141405,0.184342"
               id="rect4923-0-2-97-8"
               inkscape:connector-curvature="0" />
          </g>
        </g>
        <g
           transform="matrix(-0.00451089,-1.0027227,0.80778028,-0.00451089,65.866209,120.50907)"
           id="g4969-3">
          <path
             style="opacity:1;fill:#faff00;fill-opacity:1;stroke:none;stroke-width:0.27384374;stroke-miterlimit:4;stroke-dasharray:none;stroke-opacity:1"
             d="m 107.3611,-5.4323964 c 0,0 -0.0352,5.44318979 -0.0352,5.44318979 0,0 1.37655,0.21927572 1.37655,0.21927572 0,0 0.0322,-5.37596321 0.0322,-5.37596321 0,0 -1.37351,-0.2865023 -1.37351,-0.2865023"
             id="rect4923-7"
             inkscape:connector-curvature="0" />
          <path
             style="opacity:1;fill:#fae211;fill-opacity:1;stroke:none;stroke-width:0.25773954;stroke-miterlimit:4;stroke-dasharray:none;stroke-opacity:1"
             d="m 107.39991,-5.1044627 c 0,0 -0.0331,5.12178009 -0.0331,5.12178009 0,0 1.2956,0.20637976 1.2956,0.20637976 0,0 0.0304,-5.06221475 0.0304,-5.06221475 0,0 -1.2929,-0.2659451 -1.2929,-0.2659451"
             id="rect4923-0-5"
             inkscape:connector-curvature="0" />
          <path
             style="opacity:1;fill:#ffd603;fill-opacity:1;stroke:none;stroke-width:0.24294479;stroke-miterlimit:4;stroke-dasharray:none;stroke-opacity:1"
             d="m 107.42137,-4.7026525 c 0,0 -0.0305,4.72380905 -0.0305,4.72380905 0,0 1.24801,0.19879899 1.24801,0.19879899 0,0 0.0281,-4.67087114 0.0281,-4.67087114 0,0 -1.24561,-0.2517369 -1.24561,-0.2517369"
             id="rect4923-0-2-9"
             inkscape:connector-curvature="0" />
        </g>
        <g
           transform="matrix(-0.00451089,-1.0027227,0.80778028,-0.00451089,71.513829,120.43071)"
           id="g4969-2">
          <path
             style="opacity:1;fill:#faff00;fill-opacity:1;stroke:none;stroke-width:0.27384374;stroke-miterlimit:4;stroke-dasharray:none;stroke-opacity:1"
             d="m 112.8025,-11.223316 c 0,0 -0.0235,5.1747043 -0.0235,5.1747043 0,0 1.2438,0.1974625 1.2438,0.1974625 0,0 0.0209,-5.1139088 0.0209,-5.1139088 0,0 -1.24128,-0.258258 -1.24128,-0.258258"
             id="rect4923-2"
             inkscape:connector-curvature="0" />
          <path
             style="opacity:1;fill:#fae211;fill-opacity:1;stroke:none;stroke-width:0.25773954;stroke-miterlimit:4;stroke-dasharray:none;stroke-opacity:1"
             d="m 112.83805,-10.911949 c 0,0 -0.022,4.8692087 -0.022,4.8692087 0,0 1.17065,0.1858494 1.17065,0.1858494 0,0 0.0198,-4.8153421 0.0198,-4.8153421 0,0 -1.16842,-0.239716 -1.16842,-0.239716"
             id="rect4923-0-8"
             inkscape:connector-curvature="0" />
          <path
             style="opacity:1;fill:#ffd603;fill-opacity:1;stroke:none;stroke-width:0.24294479;stroke-miterlimit:4;stroke-dasharray:none;stroke-opacity:1"
             d="m 112.85804,-10.530165 c 0,0 -0.0203,4.4908802 -0.0203,4.4908802 0,0 1.12766,0.1790229 1.12766,0.1790229 0,0 0.0183,-4.4430071 0.0183,-4.4430071 0,0 -1.12567,-0.226896 -1.12567,-0.226896"
             id="rect4923-0-2-97"
             inkscape:connector-curvature="0" />
        </g>
        <g
           id="g5315">
          <path
             style="opacity:1;fill:#323232;fill-opacity:1;stroke:none;stroke-width:0.24645936;stroke-miterlimit:4;stroke-dasharray:none;stroke-opacity:1"
             d="m 63.166254,15.778628 c 0,0 29.236589,0.108559 29.236589,0.108559 0,0 -1.39574,-11.9712418 -1.39574,-11.9712418 0,0 -26.183719,0.037929 -26.183719,0.037929 0,0 -1.65713,11.8247538 -1.65713,11.8247538"
             id="rect956-6"
             inkscape:connector-curvature="0" />
          <path
             style="opacity:1;fill:#646464;fill-opacity:1;stroke:none;stroke-width:0.23138596;stroke-miterlimit:4;stroke-dasharray:none;stroke-opacity:1"
             d="m 63.898437,15.281609 c 0,0 27.766649,0.09704 27.766649,0.09704 0,0 -1.222581,-11.0531047 -1.222581,-11.0531047 0,0 -25.07701,0.031903 -25.07701,0.031903 0,0 -1.467058,10.9241567 -1.467058,10.9241567"
             id="rect956-6-7"
             inkscape:connector-curvature="0" />
          <path
             style="opacity:1;fill:#2a2700;fill-opacity:1;stroke:none;stroke-width:0.21605834;stroke-miterlimit:4;stroke-dasharray:none;stroke-opacity:1"
             d="m 64.639996,14.785508 c 0,0 26.278641,0.08613 26.278641,0.08613 0,0 -1.05862,-10.1307042 -1.05862,-10.1307042 0,0 -23.934525,0.026166 -23.934525,0.026166 0,0 -1.285496,10.0184122 -1.285496,10.0184122"
             id="rect956-6-7-0"
             inkscape:connector-curvature="0" />
        </g>
      </g>
    </g>
  </g>
</svg>
